<?xml version="1.0" encoding="utf-8"?>
<!-- Generator: Adobe Illustrator 15.1.0, SVG Export Plug-In  -->
<!DOCTYPE svg PUBLIC "-//W3C//DTD SVG 1.1//EN" "http://www.w3.org/Graphics/SVG/1.1/DTD/svg11.dtd" [
	<!ENTITY ns_flows "http://ns.adobe.com/Flows/1.0/">
]>
<svg version="1.1"
	 xmlns="http://www.w3.org/2000/svg" xmlns:xlink="http://www.w3.org/1999/xlink" xmlns:a="http://ns.adobe.com/AdobeSVGViewerExtensions/3.0/"
	 x="0px" y="0px" width="221px" height="91px" viewBox="13.316 47.121 221 91" enable-background="new 13.316 47.121 221 91"
	 xml:space="preserve">
<defs>
</defs>
<g>
	<defs>
		<rect id="SVGID_2_" width="247.644" height="185.733"/>
	</defs>
	<clipPath id="SVGID_3_">
		<use xlink:href="#SVGID_2_"  overflow="visible"/>
	</clipPath>
	<path clip-path="url(#SVGID_3_)" fill="#333333" d="M13.928,76.705c0-2.029,1.613-3.641,3.701-3.641
		c2.03,0,3.642,1.611,3.642,3.641v35.097c0,2.029-1.612,3.642-3.642,3.642c-2.088,0-3.701-1.612-3.701-3.642V76.705z"/>
	<path clip-path="url(#SVGID_3_)" fill="#333333" d="M38.517,76.825c0-2.03,1.613-3.701,3.701-3.701h0.775
		c1.791,0,2.806,0.895,3.82,2.149l20.891,27.04V76.645c0-1.97,1.612-3.581,3.582-3.581c2.029,0,3.64,1.611,3.64,3.581v35.097
		c0,2.029-1.552,3.642-3.581,3.642h-0.299c-1.73,0-2.805-0.897-3.82-2.211L45.739,85.359v26.501c0,1.97-1.611,3.582-3.581,3.582
		c-2.028,0-3.641-1.612-3.641-3.582V76.825z"/>
	<path clip-path="url(#SVGID_3_)" fill="#333333" d="M198.599,109.293l12.415-15.398l-11.699-14.504
		c-0.597-0.776-1.133-1.731-1.133-2.746c0-2.029,1.552-3.581,3.641-3.581c1.553,0,2.446,0.597,3.344,1.79l10.564,13.908
		l10.442-13.669c0.957-1.313,1.971-2.029,3.583-2.029s3.343,1.313,3.343,3.342c0,1.075-0.419,1.911-1.135,2.807l-11.699,14.563
		l12.297,15.339c0.597,0.776,1.133,1.672,1.133,2.746c0,2.03-1.552,3.582-3.64,3.582c-1.552,0-2.447-0.598-3.344-1.792
		l-11.22-14.623l-11.044,14.385c-1.015,1.313-1.969,2.03-3.581,2.03c-1.671,0-3.34-1.314-3.34-3.402
		C197.527,111.025,197.943,110.189,198.599,109.293"/>
	<path clip-path="url(#SVGID_3_)" fill="#568DF8" d="M88.973,90.457c5.471,6.498,10.093,13.515,14.061,21.021
		c3.777,7.146,15.118,5.436,17.045-2.228c4.693-18.663,14.231-33.833,29.377-45.766c4.002-3.151,3.276-9.914,0-13.188
		c-3.909-3.909-9.197-3.143-13.187,0c-17.437,13.736-28.785,32.563-34.175,53.996c5.681-0.743,11.363-1.485,17.044-2.228
		c-4.716-8.925-10.479-17.08-16.976-24.796c-3.278-3.892-9.827-3.363-13.189,0C85.151,81.091,85.702,86.572,88.973,90.457"/>
	<path clip-path="url(#SVGID_3_)" fill="#666666" d="M14.32,127.673c0-0.327,0.27-0.596,0.583-0.596h3.045
		c3.284,0,5.551,2.253,5.551,5.193v0.031c0,2.938-2.267,5.222-5.551,5.222h-3.045c-0.313,0-0.583-0.268-0.583-0.597V127.673z
		 M17.948,136.436c2.643,0,4.328-1.791,4.328-4.106v-0.027c0-2.315-1.686-4.136-4.328-4.136H15.5v8.27H17.948z"/>
	<path clip-path="url(#SVGID_3_)" fill="#666666" d="M58.665,136.927v-9.254c0-0.327,0.269-0.596,0.582-0.596h6.494
		c0.297,0,0.536,0.238,0.536,0.538c0,0.296-0.239,0.536-0.536,0.536h-5.896v3.568h5.224c0.298,0,0.538,0.252,0.538,0.535
		c0,0.299-0.239,0.537-0.538,0.537h-5.224v3.656h5.969c0.299,0,0.539,0.241,0.539,0.539c0,0.297-0.24,0.536-0.539,0.536h-6.567
		C58.933,137.524,58.665,137.256,58.665,136.927"/>
	<path clip-path="url(#SVGID_3_)" fill="#666666" d="M100.963,136.269c-0.134-0.087-0.223-0.253-0.223-0.445
		c0-0.329,0.253-0.583,0.567-0.583c0.15,0,0.284,0.06,0.358,0.135c0.985,0.836,1.97,1.239,3.299,1.239
		c1.402,0,2.328-0.748,2.328-1.778v-0.028c0-0.97-0.522-1.522-2.716-1.984c-2.402-0.521-3.507-1.3-3.507-3.016v-0.029
		c0-1.643,1.449-2.852,3.433-2.852c1.373,0,2.373,0.345,3.328,1.03c0.119,0.089,0.253,0.254,0.253,0.478
		c0,0.314-0.253,0.566-0.566,0.566c-0.135,0-0.239-0.028-0.344-0.104c-0.88-0.642-1.73-0.909-2.702-0.909
		c-1.358,0-2.224,0.747-2.224,1.688v0.029c0,0.984,0.538,1.537,2.835,2.028c2.329,0.509,3.403,1.359,3.403,2.954v0.032
		c0,1.791-1.493,2.953-3.567,2.953C103.397,137.672,102.128,137.196,100.963,136.269"/>
	<path clip-path="url(#SVGID_3_)" fill="#666666" d="M143.666,127.598c0-0.326,0.271-0.597,0.582-0.597
		c0.331,0,0.599,0.271,0.599,0.597v9.404c0,0.327-0.268,0.597-0.599,0.597c-0.312,0-0.582-0.27-0.582-0.597V127.598z"/>
	<path clip-path="url(#SVGID_3_)" fill="#666666" d="M180.117,132.33v-0.027c0-2.867,2.104-5.404,5.24-5.404
		c1.581,0,2.611,0.418,3.566,1.119c0.135,0.104,0.24,0.27,0.24,0.479c0,0.328-0.271,0.597-0.583,0.597
		c-0.135,0-0.253-0.06-0.373-0.15c-0.747-0.566-1.585-0.954-2.897-0.954c-2.313,0-3.968,1.954-3.968,4.283v0.031
		c0,2.49,1.597,4.341,4.132,4.341c1.196,0,2.3-0.461,3.018-1.043v-2.599h-2.808c-0.283,0-0.521-0.239-0.521-0.523
		c0-0.295,0.238-0.534,0.521-0.534h3.358c0.314,0,0.581,0.267,0.581,0.596v3.178c0,0.283-0.135,0.538-0.4,0.719
		c-0.956,0.702-2.241,1.268-3.792,1.268C182.147,137.704,180.117,135.316,180.117,132.33"/>
	<path clip-path="url(#SVGID_3_)" fill="#666666" d="M224.953,127.616c0-0.315,0.269-0.583,0.583-0.583h0.163
		c0.27,0,0.437,0.133,0.599,0.342l6.343,8.091v-7.882c0-0.312,0.254-0.582,0.582-0.582c0.314,0,0.567,0.271,0.567,0.582v9.434
		c0,0.313-0.225,0.551-0.537,0.551h-0.06c-0.255,0-0.433-0.147-0.611-0.356l-6.479-8.283v8.089c0,0.313-0.252,0.582-0.583,0.582
		c-0.313,0-0.567-0.27-0.567-0.582V127.616z"/>
</g>
<g>
	<defs>
		<rect id="SVGID_1_" width="247.644" height="185.733"/>
	</defs>
	<clipPath id="SVGID_4_">
		<use xlink:href="#SVGID_1_"  overflow="visible"/>
	</clipPath>
</g>
<path fill="#333333" d="M185.157,76.704c0,1.778-1.442,3.22-3.221,3.22H156.8c-1.777,0-3.218-1.441-3.218-3.22V76.58
	c0-1.778,1.44-3.22,3.218-3.22h25.136c1.778,0,3.221,1.442,3.221,3.22V76.704z"/>
<path fill="#333333" d="M185.157,94.181c0,1.778-1.442,3.221-3.221,3.221H156.8c-1.777,0-3.218-1.442-3.218-3.221v-0.123
	c0-1.777,1.44-3.22,3.218-3.22h25.136c1.778,0,3.221,1.443,3.221,3.22V94.181z"/>
<path fill="#333333" d="M185.157,111.934c0,1.777-1.442,3.221-3.221,3.221H156.8c-1.777,0-3.218-1.443-3.218-3.221v-0.123
	c0-1.779,1.44-3.22,3.218-3.22h25.136c1.778,0,3.221,1.44,3.221,3.22V111.934z"/>
</svg>
